<?xml version="1.0" encoding="UTF-8"?>
<CustomTab xmlns="http://soap.sforce.com/2006/04/metadata">
    <label>Community Index</label>
    <mobileReady>false</mobileReady>
    <motif>Custom81: Musical Note</motif>
    <page>LCBS_Index</page>
</CustomTab>
